CMSACamp 2026 – Exploring data: into the tidyverse
…
filter(Batting, team == PIT)

yay

filter(Batting, team == "PIT")

select()

We can use select() to extract columns (variables) of interest

We simply specify the column names:

select(Batting, playerID, yearID, G, AB, R, H, HR, BB)

# A tibble: 128,598 × 8
   playerID  yearID     G    AB     R     H    HR    BB
   <chr>      <int> <int> <int> <int> <int> <int> <int>
 1 aardsda01   2004    11     0     0     0     0     0
 2 aardsda01   2006    45     2     0     0     0     0
 3 aardsda01   2007    25     0     0     0     0     0
 4 aardsda01   2008    47     1     0     0     0     0
 5 aardsda01   2009    73     0     0     0     0     0
 6 aardsda01   2010    53     0     0     0     0     0
 7 aardsda01   2012     1     0     0     0     0     0
 8 aardsda01   2013    43     0     0     0     0     0
 9 aardsda01   2015    33     1     0     0     0     0
10 aaronha01   1954   122   468    58   131    13    28
# ℹ 128,588 more rows
…
Performing multiple operations

What if we want to perform several tasks using multiple dplyr verbs?

Example: Which Pirates players had the highest batting average in 2022, among those with at least 50 at bats?

select(arrange(mutate(filter(Batting, yearID == 2022, teamID == "PIT", AB >= 50), batting_avg = H / AB), desc(batting_avg)), playerID, AB, batting_avg)

# A tibble: 23 × 3
   playerID     AB batting_avg
   <chr>     <int>       <dbl>
 1 newmake01   288       0.274
 2 reynobr01   542       0.262
 3 hayeske01   505       0.244
 4 marisja01    77       0.234
 5 perezro02    60       0.233
 6 castrro01   253       0.233
 7 cruzon01    331       0.233
 8 gamelbe01   371       0.232
 9 chavimi01   401       0.229
10 vogelda01   237       0.228
# ℹ 13 more rows
…
mutate(): create a new column for batting average

arrange(): sort by batting average in descending order

select(): report player name, at bats, and batting average

Performing multiple operations

Batting |> 
  filter(yearID == 2022, teamID == "PIT", AB >= 50) |> 
  mutate(batting_avg = H / AB) |> 
  arrange(desc(batting_avg)) |> 
  select(playerID, AB, batting_avg)

# A tibble: 23 × 3
   playerID     AB batting_avg
   <chr>     <int>       <dbl>
 1 newmake01   288       0.274
 2 reynobr01   542       0.262
 3 hayeske01   505       0.244
 4 marisja01    77       0.234
 5 perezro02    60       0.233
 6 castrro01   253       0.233
 7 cruzon01    331       0.233
 8 gamelbe01   371       0.232
 9 chavimi01   401       0.229
10 vogelda01   237       0.228
# ℹ 13 more rows
…
Powerful when combined with summarize()

After the operation is done at the group-level, you may have to use ungroup() to remove leftover groupings

group_by() and summarize()

Example: How many home runs, strike outs, and walks did each team accumulate in each season from 2015 to 2019?

Batting |> 
  filter(yearID %in% 2015:2019) |> 
  group_by(teamID) |> 
  summarize(total_hr = sum(HR), total_so = sum(SO), total_bb = sum(BB)) |> 
  arrange(desc(total_hr))

# A tibble: 30 × 4
   teamID total_hr total_so total_bb
   <fct>     <int>    <int>    <int>
 1 NYA        1209     6659     2839
 2 HOU        1159     6294     2759
 3 TOR        1139     6741     2752
 4 LAN        1111     6751     2991
 5 BAL        1103     6914     2162
 6 TEX        1041     7008     2572
 7 SEA        1036     6693     2489
 8 MIN        1035     6694     2604
 9 OAK        1033     6474     2610
10 MIL        1031     7434     2724
# ℹ 20 more rows
…
